"name","sms"
"AT&T","txt.att.net"
"Virgin Mobile","vmobl.com"
"Sprint","messaging.sprintpcs.com"
"T Mobile","tmomail.net"
"Verizon","vtext.com"
"TracFone","mmst5.tracfone.com"
"Metro PCS","mymetropcs.com"
"Google Voice","txt.voice.google.com"
"Edge Wireless","sms.edgewireless.com"
