"email","encrypted_password","name_first","name_last","roles_mask","cellnumber","cellcarrier_id","dealer_id"
"tx900020@fmb.com","$2a$10$XLCByj8hE92Qm/Zq6t7Tt.xb6ZxBNvjM8wZOSUF5SXeIjd1ayU0fG","Amy","Hoff","4","972-757-4422","1",""
"hw1@fmb.com","$2a$10$WOdp/eBqvkh9PezUUJc3o.NWrli3C4w1asfCfefsMX2bCdwQGiLOe","Harry","Wilson","8","972-757-4422","1",""
"test3@test.com","$2a$10$BXq08l/8ukBJ2kKA0.I4auRWsyANVqBgUQrQH3Mu5hx016/KaJn02","Test 3","TX900010","8","972-757-4422","1",""
"testa@123.com","$2a$10$UKj73qcFGLbMxQ1SDPxczOVYofNz58AnpKpQ8KJtPE6LxVc7q3nTm","Test A","TX900020","8","972-757-4422","1",""
"tx900021@fmb.com","$2a$10$zodA3HCtwmkXBDI1/GvSruM1FID8CEWQQlFUUYz8JIR/we0G6jsei","Dave","Jones","4","972-757-4422","1",""
"testb@test.com","$2a$10$sbI49WnseMj.IvBhnWxAMOnoh5lAvVzBtONetPyz4y7Nv2k4T1RNW","Test B","TX900020","8","972-757-4422","1",""
"brenda@goldbuyers.com","$2a$10$GQFcnUc1Qf1rCrZhVfbHhe8soPHEOadD05ga3gGicBE7O9qo5tdcS","Brenda","Smith","16","972-757-4422","1","123456"
"dick@smarterwebapps.com","$2a$10$7gIu9.Kcj1jIg7B/de9q8.rI5c08EPp5ddk/yWUnGLVLrMm5iiX9W","Dick","Schiltz","2","972-757-4422","1",""
"tx900010@fmb.com","$2a$10$JXJ1NQUnJ.x0IQru/QUkd.vpl4b1snot9ahnMhuMvRhIP/rqvUOd6","Mike","Jacobs2","4","972-757-4422","1",""
"emailaddress@123.com","$2a$10$CM8tIdHZlwibszcMqrPMW.SHM8VZHNv9NiUotTjWjZMT.R9810uey","Joe","Smith","8","972-757-4422","1",""
"accounting@smarterwebapps.com","$2a$10$TBSk58Nb7bUsDfTOPBB0h.0z9NWDa6yqkUTZd081KzlyPEzCPB.Si","Acct","Recv","2","972-757-4422","1",""
"b@www.com","$2a$10$NR3AIFY1p/5KAqE7OJgFPelqAs2MjkGCncdni26FUsN1V6V1YkbCy","Billy","Buyer","16","1231113333","1","123456"
"sb@em.com","$2a$10$fS2rnBPbx7pkGJ6TFJKDLuvyBhyTFgn9fXfcR8pASa14wCzl/xLQ6","Susan","Buyer","16","123-444-3221","1",""
"test2@test.com","$2a$10$w3APl3btVZZ3OHBQ0AQHXuC.RtzFAf2oJaTC6Wl89oPxCUYlVS/jS","Test 2","TX900010","8","972-757-4422","1",""
"tech@smarterwebapps.com","$2a$10$KdVr6eKlCi4gYCqBJVE.WepvIc6.UQi8LEYCG/SihfrB1LshNBGUm","Tech","Support","1","972-757-4422","1",""
"doug@goldbuyers.com","$2a$10$49ZldAoLLsxcayQGhsXuo.5L/Bf5vT3fnld4xfaSph9xpOFsLK/BK","Doug","Keller","8","972-757-4422","1","123456"
"britton@voucherguide.com","$2a$10$ZygYnJyWZskuwgIpH7JiUuLiXh50bqPXLb.Ezlccln/MCnaygKWoO","Britton","Burt","2","2143846089","1",""
